[
  {
    "id": 1,
    "title": "A house with a clock",
    "yearOfRelease": 2018,
    "runningTime": 6321,
    "genre": 0
  },
  {
    "id": 2,
    "title": "A simple favor",
    "yearOfRelease": 2018,
    "runningTime": 4538,
    "genre": 1
  },
  {
    "id": 3,
    "title": "The predator",
    "yearOfRelease": 2018,
    "runningTime": 5938,
    "genre": 2
  },
  {
    "id": 4,
    "title": "Mile 22",
    "yearOfRelease": 2018,
    "runningTime": 7342,
    "genre": 0
  },
  {
    "id": 5,
    "title": "Christopher Robin",
    "yearOfRelease": 2018,
    "runningTime": 5324,
    "genre": 1
  },
  {
    "id": 6,
    "title": "The little stranger",
    "yearOfRelease": 2018,
    "runningTime": 6962,
    "genre": 0
  },
  {
    "id": 7,
    "title": "The Wife",
    "yearOfRelease": 2018,
    "runningTime": 5932,
    "genre": 2
  },
  {
    "id": 8,
    "title": "Incredibles 2",
    "yearOfRelease": 2018,
    "runningTime": 8321,
    "genre": 3
  }
]